ax,ay,az,gx,gy,gz,time
25,87,867,22,-3,-1,1114
39,103,866,25,-1,0,1239
34,111,850,8,1,0,1364
17,128,871,29,0,-1,1489
58,146,896,91,3,-9,1614
-32,164,600,107,-27,-8,1739
-20,179,471,33,-8,-2,1864
-31,194,437,24,-18,-1,1989
48,184,446,25,-15,-2,2114
26,206,375,20,6,1,2239
97,237,372,15,17,1,2364
-75,188,427,11,18,-2,2489
-75,186,419,16,-1,-1,2614
-34,192,401,15,-14,-2,2739
10,174,427,15,-13,-1,2864
5,190,411,17,0,0,2989
-17,183,405,15,3,0,3114
-17,179,398,13,3,1,3239
-26,179,395,13,0,0,3364
-18,190,400,12,3,1,3491
-39,175,381,15,2,1,3616
-4,191,414,15,3,0,3752
-10,184,394,14,0,1,3877
-1,197,393,15,0,0,4002
-1,181,408,16,-2,0,4127
-3,187,411,13,-3,0,4252
10,177,406,13,0,0,4377
-30,190,405,12,2,0,4502
4,195,411,15,0,0,4627
-4,179,398,13,0,0,4752
0,177,412,15,-1,0,4877
-1,172,411,15,0,0,5002
-15,186,406,15,0,0,5127
-27,189,395,17,0,0,5252
-9,182,404,17,1,0,5377
-8,185,399,18,2,0,5502
-3,171,397,20,2,0,5627
-10,175,395,22,4,0,5752
-45,178,389,22,5,1,5889
42,175,371,30,9,-6,6014
-37,186,434,26,-4,10,6141
85,215,435,35,-10,4,6266
63,188,421,31,-24,-5,6391
101,495,618,12,-36,-6,6516
-270,44,47,-21,22,17,6641
-26,46,279,7,9,-20,6766
-97,11,468,15,-14,-9,6891
110,176,375,-3,4,1,7016
-600,435,-265,61,68,0,7141
-137,1,439,-9,2,45,7266
142,-82,354,57,-24,8,7391
138,187,447,26,-6,0,7516
46,814,-2,17,-10,22,7641
-75,250,177,-28,21,-23,7766
-201,-468,307,32,9,-27,7891
44,248,632,-9,10,1,8016
111,514,12,-10,29,-18,8141
19,377,144,-24,-22,16,8266
-78,-251,302,47,-34,23,8391
259,203,496,40,-29,-21,8519
-128,539,584,10,-27,27,8644
-141,595,91,-10,51,0,8769
-117,-290,345,9,24,-31,8894
-51,56,488,35,11,1,9019
-24,773,807,0,14,-30,9144
-136,526,117,-11,16,13,9269
10,-106,297,26,-28,25,9394
118,48,459,37,-30,-15,9519
79,340,635,28,-19,15,9644
-30,473,-57,0,50,17,9769
27,-172,309,6,34,-26,9894
-83,-105,518,31,6,-10,10019
-195,792,922,12,36,-6,10144
-52,235,125,-3,24,-18,10269
-164,-112,329,46,-60,39,10394
193,40,488,46,-37,-16,10519
64,257,594,23,-10,14,10644
152,666,-175,-2,58,11,10769
72,-350,305,-4,28,-34,10896
-161,-8,479,44,24,-7,11021
-46,536,553,35,34,0,11146
-361,49,-236,-20,-8,-15,11271
-65,-113,339,50,-19,46,11396
30,-29,333,62,-19,-14,11521
232,255,329,0,-23,3,11646
122,679,708,97,67,54,11771
23,-85,287,6,39,-30,11896
-118,-269,368,33,7,-22,12021
-34,343,211,19,5,15,12146
-511,429,259,8,18,-63,12271
-116,44,299,25,-9,39,12396
-41,-318,281,43,-52,21,12521
119,338,485,28,-52,-13,12646
-145,475,-29,9,-45,60,12771
-163,464,101,-42,39,-18,12896
-105,-199,330,22,42,-21,13023
2,-44,607,25,37,-12,13148
189,640,179,-6,-22,-60,13273
0,350,-28,-21,30,30,13398
-161,-138,294,38,-1,13,13523
139,-34,311,47,-11,-11,13648
371,374,588,8,-14,4,13773
18,656,-109,-2,107,5,13898
-78,-174,249,0,85,-36,14023
-226,-72,352,7,70,-26,14148
16,187,324,0,27,2,14273
-332,-55,-63,-37,51,-29,14398
-118,27,379,19,56,42,14523
26,-140,284,57,32,-3,14648
71,319,473,20,7,-9,14773
94,471,-129,-3,18,18,14898
-199,212,140,-23,78,-26,15023
-81,-379,299,18,61,-32,15148
-120,94,506,-2,11,1,15275
-27,831,-454,11,-2,-15,15400
66,178,164,-14,53,24,15525
-31,-102,308,23,-17,31,15650
118,129,355,50,-20,-16,15775
206,277,438,14,-24,13,15900
-309,333,202,-19,18,15,16025
9,35,244,3,43,-10,16150
-92,-34,427,17,19,-2,16275
-124,131,638,7,28,11,16400
28,493,57,-6,26,-13,16525
-70,122,354,52,-21,12,16650
9,154,304,43,-19,15,16775
51,188,362,-1,0,-1,16900
-81,182,302,20,29,-10,17025
-77,168,338,23,4,-5,17150
-97,191,278,28,-9,-1,17275
-55,159,286,20,-20,0,17400
-12,177,292,20,-5,-2,17527
-40,168,303,17,3,0,17652
-38,161,298,16,3,0,17777
-29,177,304,16,4,0,17902
-39,170,293,14,1,1,18027
-12,186,298,16,0,0,18152
-35,169,296,14,-1,0,18277
-23,171,281,15,1,0,18402
-29,173,291,15,1,0,18527
-24,187,288,15,1,0,18652
-34,168,292,13,0,0,18777
-30,169,309,14,0,0,18902
-38,168,287,14,-1,0,19027
-26,179,293,13,0,0,19152
-40,174,297,15,0,0,19277
-43,172,316,14,0,0,19402
-29,175,311,14,0,0,19527
-27,176,319,13,2,0,19652
-31,170,323,15,1,0,19777
-31,174,317,15,2,0,19902
-31,172,320,14,0,0,20029
-24,170,305,14,3,0,20154
-22,171,322,15,2,0,20279
-24,174,320,12,6,1,20404
-17,199,301,3,4,2,20529
-38,169,344,-5,2,3,20654
-4,186,408,-11,1,4,20779
33,198,509,4,-4,1,20904
42,27,554,-235,20,11,21067
-13,248,375,12,5,-2,21192
-15,229,510,10,-1,0,21317
46,219,639,-92,-6,7,21442
20,152,674,-44,3,3,21567
50,115,820,8,6,0,21692
35,110,862,20,2,3,21817
38,111,875,12,-1,0,21942
34,122,802,13,2,0,22067
51,107,852,15,2,1,22192
52,115,839,8,1,1,22317
61,108,839,15,1,0,22442
60,94,849,11,0,-1,22569
54,110,849,15,2,0,22694
56,94,835,10,1,0,22819
44,101,850,15,0,0,22944
