ax,ay,az,gx,gy,gz,time,flg
0,-3,998,0,0,0,641103,0
-9,9,988,0,0,0,641162,0
-29,8,1002,0,0,8,641220,0
2,2,1001,0,0,2,641278,0
-1,-3,999,0,0,0,641336,0
2,1,998,0,0,0,641394,0
-3,0,1000,0,0,0,641452,0
4,30,1000,0,0,7,641510,0
-7,116,998,0,0,6,641568,0
7,81,1000,0,0,3,641626,0
-9,63,998,0,0,1,641684,0
-14,81,1000,0,0,-6,641743,0
-33,-1,995,0,0,-3,641801,0
14,54,1000,2,0,-3,641859,0
3,48,1002,2,0,0,641917,0
-9,26,999,0,1,0,641975,0
-15,34,1005,-2,0,1,642033,0
-1,78,1012,0,1,-3,642091,0
17,54,1006,1,0,-3,642149,0
0,37,997,1,1,-8,642208,0
36,109,1004,0,-1,-10,642268,0
-22,-37,1004,1,3,-11,642326,0
2,53,994,0,0,-8,642384,0
11,-28,996,0,1,-23,642443,0
-15,-55,1001,0,0,-16,642501,0
4,-63,1016,0,0,-6,642559,0
6,-71,1004,3,-1,-10,642617,0
-29,-73,999,0,1,-10,642675,0
1,-231,987,-1,1,9,642733,0
31,-170,991,1,0,30,642791,0
-35,-191,995,2,-1,49,642849,0
-46,21,996,1,0,2,642907,0
4,3,1003,0,0,0,642966,0
-1,1,1000,0,0,0,643032,0
0,1,1002,0,0,0,643091,0
0,0,1000,0,0,0,643149,1
2,0,1002,0,0,0,643207,0
0,1,1000,0,0,0,643265,0
172,-228,925,5,-4,21,643323,0
174,31,1002,0,0,-3,643381,0
96,34,1000,0,0,2,643449,0
105,-3,995,2,-2,-7,643508,0
40,-56,1000,0,1,-12,643568,0
32,-12,1000,0,-1,-13,643628,0
63,58,989,0,1,-10,643688,0
-13,-11,1007,0,0,-10,643748,0
42,89,993,0,1,-15,643807,0
13,-51,993,0,-1,-12,643867,0
-62,-87,1002,0,-2,-17,643927,0
-29,-39,990,1,1,-6,644019,0
-54,42,997,1,-5,-8,644079,0
-30,0,1002,0,-2,1,644139,0
-99,-45,1004,0,0,-1,644198,0
-39,10,1002,0,2,1,644258,0
-74,12,994,0,1,-3,644318,0
-78,13,995,0,1,-3,644378,0
-87,-66,1007,0,0,20,644437,0
39,27,1058,3,-3,0,644497,0
8,0,990,0,0,0,644557,0
12,1,998,0,0,0,644619,0
11,1,1000,0,0,0,644679,0
11,2,1001,0,0,0,644739,0
11,0,1004,0,0,0,644798,0
10,3,1000,0,0,0,644858,0
11,0,998,0,0,0,644918,0
-35,27,1026,0,0,-3,644978,0
16,10,999,5,0,0,645037,0
-9,17,976,10,0,4,645097,0
13,24,994,0,0,0,645157,0
