ax,ay,az,gx,gy,gz,time,flg
-2,0,999,0,0,0,86149,0
2,-2,1001,0,0,0,86192,0
-4,0,998,0,0,0,86234,0
-18,7,1002,0,0,9,86277,0
-5,-8,1004,0,0,1,86352,0
12,38,1000,0,0,0,86395,0
0,-3,1000,0,0,0,86437,0
-5,-3,999,0,0,0,86480,0
-2,111,999,0,0,7,86555,0
-11,131,1000,0,0,5,86598,0
-7,142,995,0,0,-2,86640,0
7,188,990,0,0,-4,86683,0
-23,109,993,0,0,-6,86725,0
-2,221,1000,3,0,-6,86801,0
-32,71,1004,3,-1,-2,86843,0
2,154,977,-5,5,-9,86886,0
71,44,987,0,0,2,86928,0
87,-13,977,4,0,-5,87004,0
17,70,1005,0,-1,-11,87046,0
1,35,1005,0,-1,-15,87089,0
85,-6,1011,2,0,-12,87134,0
-2,18,995,-3,-2,-16,87176,0
13,-82,994,-1,-1,-16,87252,0
-28,-69,992,1,0,-15,87294,0
17,-177,1008,1,0,-15,87337,0
16,-261,996,0,0,-18,87379,0
-18,-248,999,0,0,0,87455,0
-22,-299,998,0,0,7,87497,0
-7,77,987,0,0,-10,87540,0
17,9,1035,2,-1,0,87582,0
0,0,997,0,0,0,87625,0
-1,0,1003,0,0,0,87700,1
0,0,1001,0,0,0,87743,0
4,3,1003,0,0,0,87785,0
153,60,1064,11,-2,27,87828,0
168,49,1002,0,1,2,87903,0
187,38,993,0,0,-10,87946,0
150,-49,1002,0,-1,1,87988,0
125,-4,994,2,-2,-2,88031,0
107,-2,1008,0,0,-11,88106,0
72,-64,978,-1,1,-16,88149,0
39,70,1019,-1,0,-32,88197,0
-31,19,1008,0,1,-32,88241,0
-28,-3,1007,0,-2,-32,88285,0
-69,-53,993,0,-4,-32,88329,0
-128,-47,1006,2,0,-13,88406,0
-136,38,1000,0,-6,-7,88450,0
-176,-10,1000,0,-2,-5,88494,0
-194,-90,1006,0,0,0,88538,0
-114,-32,1000,0,0,-2,88582,0
-90,-46,989,1,0,9,88626,0
7,6,1004,2,-1,0,88703,0
18,7,1006,0,0,0,88747,0
12,3,999,0,0,0,88791,0
13,4,1001,0,0,0,88835,0
15,5,1000,0,0,0,88878,0
12,4,999,0,0,0,88956,0
12,4,995,0,0,0,88999,0
13,2,998,0,0,0,89043,0
-41,112,998,1,0,-18,89087,0
39,66,1006,0,0,-19,89131,0
-58,-97,1024,60,0,6,89178,0
8,21,1022,-10,0,0,89255,0
16,6,1017,-16,0,0,89299,0
