ax,ay,az,gx,gy,gz,time,flg
-2,0,1001,0,0,0,455531,0
3,-1,1003,0,0,0,455584,0
-1,-1,995,0,0,0,455637,0
0,-2,1001,0,0,0,455689,0
-1,0,1001,0,0,0,455742,0
0,-1,997,0,0,0,455795,0
-91,-50,998,0,0,20,455848,0
-13,40,988,0,0,7,455901,0
-15,99,997,0,0,5,455954,0
10,98,1004,0,1,1,456007,0
-2,97,997,0,0,-1,456059,0
-20,42,998,0,0,-2,456112,0
6,127,999,0,0,8,456165,0
30,83,1004,2,-1,-3,456251,0
2,105,999,1,1,-12,456304,0
6,20,989,-3,0,-6,456356,0
14,70,1004,1,0,-6,456409,0
-7,-4,1018,1,-1,-4,456462,0
32,48,1006,3,0,6,456515,0
1,31,1012,0,0,-5,456568,0
32,20,1020,1,0,-4,456623,0
49,9,980,0,0,-3,456676,0
11,-1,998,0,0,-6,456729,0
11,0,991,2,0,1,456782,0
-6,-23,998,-1,0,-9,456835,0
4,-101,995,0,0,-12,456888,0
-27,-100,990,2,-1,-6,456940,0
4,-121,998,0,1,-3,456993,0
2,-174,998,0,0,-2,457046,0
-29,-335,995,0,0,14,457099,0
-20,-64,1038,2,-1,55,457152,0
5,6,1010,0,0,0,457205,0
0,0,998,0,0,0,457257,0
0,3,1000,0,0,0,457310,0
0,0,1001,0,0,0,457363,1
3,1,1002,0,0,0,457416,0
0,1,1000,0,0,0,457469,0
194,-3,1003,0,0,0,457522,0
151,-84,997,0,0,8,457575,0
129,-15,1004,1,-1,5,457628,0
150,38,996,1,-1,-7,457690,0
114,5,1004,0,0,-16,457744,0
73,23,1002,1,-1,-15,457799,0
76,-14,1000,-1,0,-14,457853,0
22,-7,1004,0,-1,-17,457908,0
-8,-22,1001,0,0,-17,457962,0
-7,-6,1008,0,-3,-21,458017,0
-17,-33,991,0,0,-10,458071,0
-28,-32,995,1,-2,-22,458126,0
-54,-16,995,1,0,-13,458180,0
-83,-26,1000,1,-3,-13,458235,0
-72,55,1001,0,-2,-7,458289,0
-111,18,1001,0,0,-6,458344,0
-109,-17,995,0,0,-6,458398,0
-103,0,1182,6,-6,15,458453,0
-81,51,999,1,0,10,458508,0
13,1,998,0,0,0,458562,0
13,3,997,0,0,0,458617,0
15,4,1000,0,0,0,458671,0
15,4,1000,0,0,0,458728,0
14,4,1001,0,0,0,458783,0
15,0,997,0,0,0,458837,0
13,5,1000,0,0,0,458892,0
7,86,1000,0,0,-22,458946,0
16,6,1001,4,0,0,459001,0
-4,10,977,13,1,0,459055,0
14,9,1006,-6,0,0,459110,0
