ax,ay,az,gx,gy,gz,time,flg
-5,0,1001,0,0,0,594789,0
1,-1,1002,0,0,0,594847,0
3,-3,999,0,0,0,594938,0
-3,0,1002,0,0,0,594996,0
0,-3,999,0,0,0,595054,0
-3,-1,1001,0,0,0,595112,0
4,45,998,0,0,7,595170,0
-12,97,1004,0,0,5,595228,0
-15,112,1003,0,0,-3,595286,0
-14,91,999,0,0,-2,595344,0
-4,104,1009,0,0,-8,595401,0
5,16,1002,1,0,-11,595459,0
-10,87,999,2,0,-13,595517,0
-31,40,1004,1,1,-8,595575,0
-20,95,994,-3,2,5,595633,0
-14,59,1030,0,1,0,595691,0
31,15,989,2,0,1,595749,0
34,-40,977,2,-1,-17,595807,0
-8,7,987,0,-2,-10,595865,0
43,35,978,-1,0,-6,595923,0
19,32,1018,0,0,-20,595983,0
0,-67,994,1,0,-23,596041,0
-7,-37,984,-2,1,-22,596099,0
15,-99,998,0,1,-17,596157,0
-5,-94,1004,2,0,-13,596215,0
-9,-168,992,-1,0,0,596273,0
9,-370,1002,0,1,19,596331,0
-13,-154,988,0,1,29,596389,0
7,6,1016,0,0,0,596447,0
2,1,999,0,0,0,596505,0
-3,1,997,0,0,0,596563,0
1,0,1001,0,0,0,596620,1
-1,0,999,0,0,0,596678,0
13,-358,1083,-2,3,3,596736,0
175,31,1046,5,-5,34,596794,0
211,93,1002,0,0,30,596852,0
142,24,1003,0,0,19,596910,0
113,8,996,0,0,5,596968,0
48,-38,1001,1,-1,-13,597026,0
-1,16,990,0,2,-4,597093,0
-14,-50,981,0,0,-10,597153,0
-12,-3,1002,1,-1,-18,597212,0
-35,-22,993,0,0,-10,597272,0
-22,-26,980,0,-3,-9,597332,0
-24,-12,1002,0,2,-7,597391,0
-50,-31,1003,1,-4,0,597451,0
-37,-40,1003,0,-1,0,597510,0
-101,-9,1000,0,0,-5,597570,0
-51,-35,1000,0,2,4,597630,0
-56,82,997,0,0,11,597689,0
-57,42,1001,0,1,0,597749,0
-94,-54,1002,0,1,5,597808,0
27,14,998,0,0,10,597868,0
10,-3,994,3,-3,0,597927,0
10,1,1000,0,0,0,597987,0
11,3,1001,0,0,0,598047,0
12,3,998,0,0,0,598106,0
12,3,997,0,0,0,598166,0
11,3,999,0,0,0,598225,0
14,1,997,0,0,0,598287,0
9,0,994,0,0,0,598347,0
25,-33,995,0,0,-2,598406,0
6,13,1001,21,0,0,598465,0
14,20,1001,21,0,0,598525,0
12,38,998,-3,0,0,598584,0
