ax,ay,az,gx,gy,gz,time,flg
-1,2,999,0,0,0,510490,0
-3,0,998,0,0,0,510545,0
-8,1,995,0,0,0,510601,0
132,-53,994,0,0,-6,510656,0
-12,0,1001,0,0,0,510711,0
16,32,1001,0,0,13,510766,0
16,143,995,0,0,7,510821,0
-3,193,1002,0,1,6,510876,0
-4,160,1002,0,0,2,510931,0
-7,122,993,0,0,-8,510986,0
-14,98,1001,1,0,-5,511041,0
1,127,1003,2,0,-8,511097,0
-6,30,1008,0,1,-12,511152,0
5,54,1020,-2,0,3,511207,0
-17,64,993,-1,2,28,511262,0
-5,16,1002,4,0,15,511317,0
18,64,1025,1,-2,-7,511372,0
42,54,1010,2,0,-14,511427,0
50,-26,1012,1,-2,-17,511483,0
15,-28,1006,0,0,-12,511540,0
28,-62,1000,0,0,-16,511596,0
29,40,999,0,0,-14,511651,0
11,-120,1011,1,0,-16,511707,0
9,-119,1004,-1,0,-10,511762,0
-80,-508,1003,0,1,-3,511818,0
-48,-192,1011,2,-2,-1,511873,0
8,11,1024,3,-3,0,511929,0
0,-1,994,0,0,0,511984,0
1,2,1000,0,0,0,512040,0
0,1,998,0,0,0,512095,1
2,0,1000,0,0,0,512151,0
0,1,998,0,0,0,512206,0
1,1,1002,0,0,0,512262,0
45,-387,1084,-4,5,8,512317,0
270,133,1012,0,0,27,512373,0
172,18,1002,0,0,19,512428,0
113,-6,993,0,1,-7,512484,0
58,-20,999,0,0,6,512539,0
44,22,1013,1,-1,-3,512595,0
38,-39,995,0,1,-5,512660,0
-15,-43,999,0,0,-4,512717,0
10,32,994,0,1,-10,512774,0
-34,-16,1018,0,-1,-12,512831,0
2,17,993,1,0,-19,512888,0
-5,-46,1002,0,0,-7,512946,0
-4,1,992,1,0,-4,513003,0
-63,18,1004,1,-4,-4,513060,0
-30,44,1003,0,-2,-3,513117,0
-90,13,1000,0,0,-3,513174,0
-122,0,995,0,1,-9,513231,0
-102,-120,995,0,0,20,513289,0
-152,59,953,-2,0,40,513346,0
23,8,1014,1,0,0,513403,0
9,4,1002,0,0,0,513460,0
14,1,998,0,0,0,513517,0
10,3,1002,0,0,0,513574,0
15,2,1000,0,0,0,513632,0
9,4,999,0,0,0,513689,0
13,4,1001,0,0,0,513746,0
16,2,997,0,0,0,513838,0
10,1,998,1,0,0,513895,0
18,2,999,0,1,0,513952,0
-18,-59,1011,5,0,-3,514010,0
14,12,1001,7,0,0,514067,0
